<?xml version="1.0" encoding="UTF-8" standalone="no"?>
<svg
   version="1.2"
   width="190.00002mm"
   height="56.012444mm"
   viewBox="0 0 108.1205 31.874173"
   id="svg1244"
   sodipodi:docname="christequilux-1.svg"
   xmlns:inkscape="http://www.inkscape.org/namespaces/inkscape"
   xmlns:sodipodi="http://sodipodi.sourceforge.net/DTD/sodipodi-0.dtd"
   xmlns="http://www.w3.org/2000/svg"
   xmlns:svg="http://www.w3.org/2000/svg">
  <defs
     id="defs1248" />
  <sodipodi:namedview
     id="namedview1246"
     pagecolor="#ffffff"
     bordercolor="#666666"
     borderopacity="1.0"
     inkscape:showpageshadow="2"
     inkscape:pageopacity="0.0"
     inkscape:pagecheckerboard="0"
     inkscape:deskcolor="#d1d1d1"
     inkscape:document-units="mm" />
  <style
     type="text/css"
     id="style2"><![CDATA[
tspan { white-space: pre; }
]]></style>
  <g
     transform="translate(77.5963,1.4441602)"
     id="g8">
    <text
       font-family="'Charis SIL'"
       font-size="1.96px"
       text-anchor="start"
       fill="currentColor"
       id="text6"><tspan
         id="tspan4">T+N: Jistebnický kancionál, f. 55v</tspan></text>
  </g>
  <g
     transform="translate(0,8.1720602)"
     id="g12">
    <line
       stroke-linejoin="round"
       stroke-linecap="round"
       stroke-width="0.1"
       stroke="currentColor"
       x1="0.050000001"
       y1="0"
       x2="108.0705"
       y2="0"
       id="line10" />
  </g>
  <g
     transform="translate(0,7.1720602)"
     id="g16">
    <line
       stroke-linejoin="round"
       stroke-linecap="round"
       stroke-width="0.1"
       stroke="currentColor"
       x1="0.050000001"
       y1="0"
       x2="108.0705"
       y2="0"
       id="line14" />
  </g>
  <g
     transform="translate(0,6.1720602)"
     id="g20">
    <line
       stroke-linejoin="round"
       stroke-linecap="round"
       stroke-width="0.1"
       stroke="currentColor"
       x1="0.050000001"
       y1="0"
       x2="108.0705"
       y2="0"
       id="line18" />
  </g>
  <g
     transform="translate(0,5.1720602)"
     id="g24">
    <line
       stroke-linejoin="round"
       stroke-linecap="round"
       stroke-width="0.1"
       stroke="currentColor"
       x1="0.050000001"
       y1="0"
       x2="108.0705"
       y2="0"
       id="line22" />
  </g>
  <g
     transform="translate(0,4.1720602)"
     id="g28">
    <line
       stroke-linejoin="round"
       stroke-linecap="round"
       stroke-width="0.1"
       stroke="currentColor"
       x1="0.050000001"
       y1="0"
       x2="108.0705"
       y2="0"
       id="line26" />
  </g>
  <g
     transform="translate(0,9.1720602)"
     id="g32">
    <rect
       x="82.5317"
       y="-0.1"
       width="1.9563"
       height="0.2"
       ry="0.1"
       fill="currentColor"
       id="rect30" />
  </g>
  <g
     transform="translate(0,9.1720602)"
     id="g36">
    <rect
       x="30.414801"
       y="-0.1"
       width="1.9563"
       height="0.2"
       ry="0.1"
       fill="currentColor"
       id="rect34" />
  </g>
  <g
     transform="translate(107.9304,6.1720602)"
     id="g40">
    <rect
       x="0"
       y="-2"
       width="0.19"
       height="4"
       ry="0.0000"
       fill="currentColor"
       id="rect38" />
  </g>
  <g
     transform="translate(56.8535,6.1720602)"
     id="g44">
    <rect
       x="0"
       y="-1"
       width="0.19"
       height="2"
       ry="0.0000"
       fill="currentColor"
       id="rect42" />
  </g>
  <g
     transform="translate(86.467,15.67086)"
     id="g50">
    <text
       font-family="'Charis SIL'"
       font-style="italic"
       font-size="2.4696px"
       text-anchor="start"
       fill="currentColor"
       id="text48"><tspan
         id="tspan46">de</tspan></text>
  </g>
  <g
     transform="translate(86.4499,12.87086)"
     id="g56">
    <text
       font-family="'Charis SIL'"
       font-size="2.4696px"
       text-anchor="start"
       fill="currentColor"
       id="text54"><tspan
         id="tspan52">za</tspan></text>
  </g>
  <g
     transform="translate(86.9928,8.6720602)"
     id="g60">
    <path
       transform="scale(0.004,-0.004)"
       d="m 218,136 c 66,0 108,-36 108,-89 0,-89 -113,-183 -218,-183 -66,0 -108,36 -108,89 0,89 113,183 218,183 z"
       fill="currentColor"
       id="path58" />
  </g>
  <g
     transform="translate(81.3247,15.67086)"
     id="g66">
    <text
       font-family="'Charis SIL'"
       font-style="italic"
       font-size="2.4696px"
       text-anchor="start"
       fill="currentColor"
       id="text64"><tspan
         id="tspan62">bras</tspan></text>
  </g>
  <g
     transform="translate(82.7075,12.87086)"
     id="g72">
    <text
       font-family="'Charis SIL'"
       font-size="2.4696px"
       text-anchor="start"
       fill="currentColor"
       id="text70"><tspan
         id="tspan68">ti</tspan></text>
  </g>
  <g
     transform="translate(82.8577,9.1720602)"
     id="g76">
    <path
       transform="scale(0.004,-0.004)"
       d="m 218,136 c 66,0 108,-36 108,-89 0,-89 -113,-183 -218,-183 -66,0 -108,36 -108,89 0,89 113,183 218,183 z"
       fill="currentColor"
       id="path74" />
  </g>
  <g
     transform="translate(91.1279,8.1720602)"
     id="g80">
    <path
       transform="scale(0.004,-0.004)"
       d="m 218,136 c 66,0 108,-36 108,-89 0,-89 -113,-183 -218,-183 -66,0 -108,36 -108,89 0,89 113,183 218,183 z"
       fill="currentColor"
       id="path78" />
  </g>
  <g
     transform="translate(90.3972,12.87086)"
     id="g86">
    <text
       font-family="'Charis SIL'"
       font-size="2.4696px"
       text-anchor="start"
       fill="currentColor"
       id="text84"><tspan
         id="tspan82">pu</tspan></text>
  </g>
  <g
     transform="translate(91.1279,15.67086)"
     id="g92">
    <text
       font-family="'Charis SIL'"
       font-style="italic"
       font-size="2.4696px"
       text-anchor="start"
       fill="currentColor"
       id="text90"><tspan
         id="tspan88">te</tspan></text>
  </g>
  <g
     transform="translate(95.263,7.6720602)"
     id="g96">
    <path
       transform="scale(0.004,-0.004)"
       d="m 218,136 c 66,0 108,-36 108,-89 0,-89 -113,-183 -218,-183 -66,0 -108,36 -108,89 0,89 113,183 218,183 z"
       fill="currentColor"
       id="path94" />
  </g>
  <g
     transform="translate(94.6518,12.87086)"
     id="g102">
    <text
       font-family="'Charis SIL'"
       font-size="2.4696px"
       text-anchor="start"
       fill="currentColor"
       id="text100"><tspan
         id="tspan98">zu</tspan></text>
  </g>
  <g
     transform="translate(62.3788,8.1720602)"
     id="g106">
    <path
       transform="scale(0.004,-0.004)"
       d="m 218,136 c 66,0 108,-36 108,-89 0,-89 -113,-183 -218,-183 -66,0 -108,36 -108,89 0,89 113,183 218,183 z"
       fill="currentColor"
       id="path104" />
  </g>
  <g
     transform="translate(61.87,15.67086)"
     id="g112">
    <text
       font-family="'Charis SIL'"
       font-style="italic"
       font-size="2.4696px"
       text-anchor="start"
       fill="currentColor"
       id="text110"><tspan
         id="tspan108">tis</tspan></text>
  </g>
  <g
     transform="translate(62.1788,8.1720602)"
     id="g116">
    <path
       transform="scale(0.002,-0.002)"
       d="m -31,-250 c 0,-10 -9,-19 -19,-19 -5,0 -12,2 -16,8 -54,77 -90,167 -90,261 0,94 36,184 90,261 4,6 11,8 16,8 10,0 19,-9 19,-19 0,-21 -63,-57 -63,-250 0,-193 63,-229 63,-250 z"
       fill="currentColor"
       id="path114" />
  </g>
  <g
     transform="translate(63.883,8.1720602)"
     id="g120">
    <path
       transform="scale(0.002,-0.002)"
       d="m 31,-250 c 0,21 63,57 63,250 0,193 -63,229 -63,250 0,10 9,19 19,19 5,0 12,-2 16,-8 54,-77 90,-167 90,-261 0,-94 -36,-184 -90,-261 -4,-6 -11,-8 -16,-8 -10,0 -19,9 -19,19 z"
       fill="currentColor"
       id="path118" />
  </g>
  <g
     transform="translate(66.5138,8.1720602)"
     id="g124">
    <path
       transform="scale(0.004,-0.004)"
       d="m 218,136 c 66,0 108,-36 108,-89 0,-89 -113,-183 -218,-183 -66,0 -108,36 -108,89 0,89 113,183 218,183 z"
       fill="currentColor"
       id="path122" />
  </g>
  <g
     transform="translate(65.2198,12.87086)"
     id="g130">
    <text
       font-family="'Charis SIL'"
       font-size="2.4696px"
       text-anchor="start"
       fill="currentColor"
       id="text128"><tspan
         id="tspan126">noč</tspan></text>
  </g>
  <g
     transform="translate(66.2611,15.67086)"
     id="g136">
    <text
       font-family="'Charis SIL'"
       font-style="italic"
       font-size="2.4696px"
       text-anchor="start"
       fill="currentColor"
       id="text134"><tspan
         id="tspan132">te</tspan></text>
  </g>
  <g
     transform="translate(77.764,12.87086)"
     id="g142">
    <text
       font-family="'Charis SIL'"
       font-size="2.4696px"
       text-anchor="start"
       fill="currentColor"
       id="text140"><tspan
         id="tspan138">nos</tspan></text>
  </g>
  <g
     transform="translate(70.6489,8.1720602)"
     id="g146">
    <path
       transform="scale(0.004,-0.004)"
       d="m 218,136 c 66,0 108,-36 108,-89 0,-89 -113,-183 -218,-183 -66,0 -108,36 -108,89 0,89 113,183 218,183 z"
       fill="currentColor"
       id="path144" />
  </g>
  <g
     transform="translate(69.628,12.87086)"
     id="g152">
    <text
       font-family="'Charis SIL'"
       font-size="2.4696px"
       text-anchor="start"
       fill="currentColor"
       id="text150"><tspan
         id="tspan148">nie</tspan></text>
  </g>
  <g
     transform="translate(70.6489,15.67086)"
     id="g158">
    <text
       font-family="'Charis SIL'"
       font-style="italic"
       font-size="2.4696px"
       text-anchor="start"
       fill="currentColor"
       id="text156"><tspan
         id="tspan154">ne</tspan></text>
  </g>
  <g
     transform="translate(74.8376,8.6720602)"
     id="g162">
    <path
       transform="scale(0.004,-0.004)"
       d="m 218,136 c 66,0 108,-36 108,-89 0,-89 -113,-183 -218,-183 -66,0 -108,36 -108,89 0,89 113,183 218,183 z"
       fill="currentColor"
       id="path160" />
  </g>
  <g
     transform="translate(73.424,12.87086)"
     id="g168">
    <text
       font-family="'Charis SIL'"
       font-size="2.4696px"
       text-anchor="start"
       fill="currentColor"
       id="text166"><tspan
         id="tspan164">tem</tspan></text>
  </g>
  <g
     transform="translate(78.9727,8.1720602)"
     id="g172">
    <path
       transform="scale(0.004,-0.004)"
       d="m 218,136 c 66,0 108,-36 108,-89 0,-89 -113,-183 -218,-183 -66,0 -108,36 -108,89 0,89 113,183 218,183 z"
       fill="currentColor"
       id="path170" />
  </g>
  <g
     transform="translate(69.1821,12.87086)"
     id="g176">
    <rect
       x="0"
       y="-0.55000001"
       width="0.3759"
       height="0.13"
       ry="0.039999999"
       fill="currentColor"
       id="rect174" />
  </g>
  <g
     transform="translate(37.1631,12.87086)"
     id="g180">
    <rect
       x="0"
       y="-0.55000001"
       width="0.66000003"
       height="0.13"
       ry="0.039999999"
       fill="currentColor"
       id="rect178" />
  </g>
  <g
     transform="translate(51.3127,12.87086)"
     id="g184">
    <rect
       x="0"
       y="-0.55000001"
       width="0.66000003"
       height="0.13"
       ry="0.039999999"
       fill="currentColor"
       id="rect182" />
  </g>
  <g
     transform="translate(50.7937,15.67086)"
     id="g188">
    <rect
       x="0"
       y="-0.55000001"
       width="0.66000003"
       height="0.13"
       ry="0.039999999"
       fill="currentColor"
       id="rect186" />
  </g>
  <g
     transform="translate(60.9577,15.67086)"
     id="g192">
    <rect
       x="0"
       y="-0.55000001"
       width="0.66000003"
       height="0.13"
       ry="0.039999999"
       fill="currentColor"
       id="rect190" />
  </g>
  <g
     transform="translate(69.0298,15.67086)"
     id="g196">
    <rect
       x="0"
       y="-0.55000001"
       width="0.66000003"
       height="0.13"
       ry="0.039999999"
       fill="currentColor"
       id="rect194" />
  </g>
  <g
     transform="translate(70.6489,6.1720602)"
     id="g200">
    <path
       stroke-width="0.08"
       stroke-linejoin="round"
       stroke-linecap="round"
       stroke="currentColor"
       fill="currentColor"
       d="M 8.9316,3.0815 C 8.9466,3.0694 8.9614,3.0573 8.9759,3.045 v 0 C 8.9614,3.0562 8.9466,3.0673 8.9316,3.0782 Z"
       id="path198" />
  </g>
  <g
     transform="translate(70.6489,6.1720602)"
     id="g204">
    <path
       stroke-width="0.08"
       stroke-linejoin="round"
       stroke-linecap="round"
       stroke="currentColor"
       fill="currentColor"
       d="M 8.4018,3.4095 C 8.4219,3.3997 8.4418,3.3897 8.4615,3.3797 V 3.3502 C 8.4418,3.3593 8.4219,3.3684 8.4018,3.3774 Z"
       id="path202" />
  </g>
  <g
     transform="translate(70.6489,6.1720602)"
     id="g208">
    <path
       stroke-width="0.08"
       stroke-linejoin="round"
       stroke-linecap="round"
       stroke="currentColor"
       fill="currentColor"
       d="M 7.7352,3.6713 C 7.7594,3.6636 7.7834,3.6559 7.8072,3.6481 V 3.5949 C 7.7834,3.602 7.7594,3.6091 7.7352,3.616 Z"
       id="path206" />
  </g>
  <g
     transform="translate(70.6489,6.1720602)"
     id="g212">
    <path
       stroke-width="0.08"
       stroke-linejoin="round"
       stroke-linecap="round"
       stroke="currentColor"
       fill="currentColor"
       d="M 6.9626,3.8668 C 6.9897,3.8614 7.0168,3.8558 7.0437,3.8502 V 3.7792 C 7.0168,3.7843 6.9897,3.7894 6.9626,3.7943 Z"
       id="path210" />
  </g>
  <g
     transform="translate(70.6489,6.1720602)"
     id="g216">
    <path
       stroke-width="0.08"
       stroke-linejoin="round"
       stroke-linecap="round"
       stroke="currentColor"
       fill="currentColor"
       d="M 6.1146,3.996 C 6.1437,3.9928 6.1729,3.9895 6.2019,3.9861 V 3.9031 C 6.1729,3.9062 6.1437,3.9092 6.1146,3.9121 Z"
       id="path214" />
  </g>
  <g
     transform="translate(70.6489,6.1720602)"
     id="g220">
    <path
       stroke-width="0.08"
       stroke-linejoin="round"
       stroke-linecap="round"
       stroke="currentColor"
       fill="currentColor"
       d="M 5.222,4.0589 C 5.2521,4.058 5.2823,4.0569 5.3124,4.0556 V 3.9665 C 5.2823,3.9676 5.2521,3.9686 5.222,3.9695 Z"
       id="path218" />
  </g>
  <g
     transform="translate(70.6489,6.1720602)"
     id="g224">
    <path
       stroke-width="0.08"
       stroke-linejoin="round"
       stroke-linecap="round"
       stroke="currentColor"
       fill="currentColor"
       d="M 4.3156,4.0556 C 4.3457,4.0569 4.3758,4.058 4.406,4.0589 V 3.9695 C 4.3758,3.9686 4.3457,3.9676 4.3156,3.9665 Z"
       id="path222" />
  </g>
  <g
     transform="translate(70.6489,6.1720602)"
     id="g228">
    <path
       stroke-width="0.08"
       stroke-linejoin="round"
       stroke-linecap="round"
       stroke="currentColor"
       fill="currentColor"
       d="M 3.4261,3.9861 C 3.4551,3.9895 3.4842,3.9928 3.5134,3.996 V 3.9121 C 3.4842,3.9092 3.4551,3.9062 3.4261,3.9031 Z"
       id="path226" />
  </g>
  <g
     transform="translate(70.6489,6.1720602)"
     id="g232">
    <path
       stroke-width="0.08"
       stroke-linejoin="round"
       stroke-linecap="round"
       stroke="currentColor"
       fill="currentColor"
       d="M 2.5843,3.8502 C 2.6112,3.8558 2.6382,3.8614 2.6654,3.8668 V 3.7943 C 2.6382,3.7894 2.6112,3.7843 2.5843,3.7792 Z"
       id="path230" />
  </g>
  <g
     transform="translate(70.6489,6.1720602)"
     id="g236">
    <path
       stroke-width="0.08"
       stroke-linejoin="round"
       stroke-linecap="round"
       stroke="currentColor"
       fill="currentColor"
       d="m 1.8208,3.6481 c 0.0238,0.0078 0.0478,0.0155 0.072,0.0232 V 3.616 C 1.8686,3.6091 1.8446,3.602 1.8208,3.5949 Z"
       id="path234" />
  </g>
  <g
     transform="translate(70.6489,6.1720602)"
     id="g240">
    <path
       stroke-width="0.08"
       stroke-linejoin="round"
       stroke-linecap="round"
       stroke="currentColor"
       fill="currentColor"
       d="m 1.1665,3.3797 c 0.0197,0.01 0.0395,0.02 0.0597,0.0298 V 3.3774 C 1.206,3.3684 1.1862,3.3593 1.1665,3.3502 Z"
       id="path238" />
  </g>
  <g
     transform="translate(70.6489,6.1720602)"
     id="g244">
    <path
       stroke-width="0.08"
       stroke-linejoin="round"
       stroke-linecap="round"
       stroke="currentColor"
       fill="currentColor"
       d="M 0.6521,3.045 C 0.6666,3.0573 0.6813,3.0694 0.6964,3.0815 V 3.0782 C 0.6813,3.0673 0.6666,3.0562 0.6521,3.045 Z"
       id="path242" />
  </g>
  <g
     transform="translate(76.8347,15.67086)"
     id="g248">
    <rect
       x="0"
       y="-0.55000001"
       width="0.66000003"
       height="0.13"
       ry="0.039999999"
       fill="currentColor"
       id="rect246" />
  </g>
  <g
     transform="translate(81.7665,12.87086)"
     id="g252">
    <rect
       x="0"
       y="-0.55000001"
       width="0.66000003"
       height="0.13"
       ry="0.039999999"
       fill="currentColor"
       id="rect250" />
  </g>
  <g
     transform="translate(89.2886,12.87086)"
     id="g256">
    <rect
       x="0"
       y="-0.55000001"
       width="0.66000003"
       height="0.13"
       ry="0.039999999"
       fill="currentColor"
       id="rect254" />
  </g>
  <g
     transform="translate(89.6454,15.67086)"
     id="g260">
    <rect
       x="0"
       y="-0.55000001"
       width="0.66000003"
       height="0.13"
       ry="0.039999999"
       fill="currentColor"
       id="rect258" />
  </g>
  <g
     transform="translate(91.1279,6.1720602)"
     id="g264">
    <path
       stroke-width="0.08"
       stroke-linejoin="round"
       stroke-linecap="round"
       stroke="currentColor"
       fill="currentColor"
       d="M 8.5951,3.5814 C 8.6121,3.5694 8.6288,3.5573 8.6452,3.545 v 0 C 8.6289,3.5561 8.6123,3.5671 8.5954,3.5779 Z"
       id="path262" />
  </g>
  <g
     transform="translate(91.1279,6.1720602)"
     id="g268">
    <path
       stroke-width="0.08"
       stroke-linejoin="round"
       stroke-linecap="round"
       stroke="currentColor"
       fill="currentColor"
       d="M 7.9987,3.8958 C 8.0213,3.8868 8.0436,3.8777 8.0657,3.8684 L 8.0676,3.8363 C 8.0457,3.8447 8.0234,3.8529 8.0009,3.8609 Z"
       id="path266" />
  </g>
  <g
     transform="translate(91.1279,6.1720602)"
     id="g272">
    <path
       stroke-width="0.08"
       stroke-linejoin="round"
       stroke-linecap="round"
       stroke="currentColor"
       fill="currentColor"
       d="M 7.2549,4.122 C 7.2818,4.1159 7.3084,4.1097 7.3348,4.1033 L 7.3384,4.0463 C 7.312,4.0519 7.2854,4.0575 7.2586,4.0629 Z"
       id="path270" />
  </g>
  <g
     transform="translate(91.1279,6.1720602)"
     id="g276">
    <path
       stroke-width="0.08"
       stroke-linejoin="round"
       stroke-linecap="round"
       stroke="currentColor"
       fill="currentColor"
       d="M 6.4023,4.2625 C 6.4321,4.2592 6.4618,4.2558 6.4913,4.2522 L 6.496,4.1772 C 6.4665,4.1803 6.4368,4.1832 6.407,4.186 Z"
       id="path274" />
  </g>
  <g
     transform="translate(91.1279,6.1720602)"
     id="g280">
    <path
       stroke-width="0.08"
       stroke-linejoin="round"
       stroke-linecap="round"
       stroke="currentColor"
       fill="currentColor"
       d="M 5.4793,4.3195 C 5.5108,4.319 5.5423,4.3183 5.5737,4.3175 L 5.579,4.2315 c -0.0313,6e-4 -0.0628,0.001 -0.0943,0.0013 z"
       id="path278" />
  </g>
  <g
     transform="translate(91.1279,6.1720602)"
     id="g284">
    <path
       stroke-width="0.08"
       stroke-linejoin="round"
       stroke-linecap="round"
       stroke="currentColor"
       fill="currentColor"
       d="m 4.5247,4.2955 c 0.0319,0.0022 0.0638,0.0041 0.0958,0.006 L 4.6261,4.2117 C 4.5941,4.2098 4.5622,4.2078 4.5303,4.2057 Z"
       id="path282" />
  </g>
  <g
     transform="translate(91.1279,6.1720602)"
     id="g288">
    <path
       stroke-width="0.08"
       stroke-linejoin="round"
       stroke-linecap="round"
       stroke="currentColor"
       fill="currentColor"
       d="M 3.5768,4.193 C 3.6079,4.1977 3.639,4.2023 3.6702,4.2067 L 3.6756,4.1201 C 3.6444,4.1158 3.6133,4.1115 3.5822,4.107 Z"
       id="path286" />
  </g>
  <g
     transform="translate(91.1279,6.1720602)"
     id="g292">
    <path
       stroke-width="0.08"
       stroke-linejoin="round"
       stroke-linecap="round"
       stroke="currentColor"
       fill="currentColor"
       d="M 2.6744,4.0143 C 2.7033,4.0215 2.7323,4.0285 2.7615,4.0355 L 2.7663,3.9591 C 2.7371,3.9526 2.708,3.946 2.6791,3.9392 Z"
       id="path290" />
  </g>
  <g
     transform="translate(91.1279,6.1720602)"
     id="g296">
    <path
       stroke-width="0.08"
       stroke-linejoin="round"
       stroke-linecap="round"
       stroke="currentColor"
       fill="currentColor"
       d="M 1.8559,3.7617 C 1.8814,3.7714 1.907,3.7809 1.9329,3.7902 L 1.9366,3.7311 C 1.9107,3.7224 1.885,3.7136 1.8595,3.7047 Z"
       id="path294" />
  </g>
  <g
     transform="translate(91.1279,6.1720602)"
     id="g300">
    <path
       stroke-width="0.08"
       stroke-linejoin="round"
       stroke-linecap="round"
       stroke="currentColor"
       fill="currentColor"
       d="M 1.16,3.4379 C 1.1807,3.4498 1.2017,3.4617 1.2229,3.4734 L 1.2251,3.4385 C 1.2038,3.4277 1.1827,3.4168 1.1619,3.4058 Z"
       id="path298" />
  </g>
  <g
     transform="translate(91.1279,6.1720602)"
     id="g304">
    <path
       stroke-width="0.08"
       stroke-linejoin="round"
       stroke-linecap="round"
       stroke="currentColor"
       fill="currentColor"
       d="m 0.6251,3.045 c 0.0147,0.0142 0.0297,0.0283 0.0451,0.0423 l 2e-4,-0.0035 C 0.655,3.071 0.6398,3.058 0.6251,3.045 Z"
       id="path302" />
  </g>
  <g
     transform="translate(93.5773,12.87086)"
     id="g308">
    <rect
       x="0"
       y="-0.55000001"
       width="0.66000003"
       height="0.13"
       ry="0.039999999"
       fill="currentColor"
       id="rect306" />
  </g>
  <g
     transform="translate(97.4076,15.67086)"
     id="g312">
    <rect
       x="0"
       y="-0.55000001"
       width="0.66000003"
       height="0.13"
       ry="0.039999999"
       fill="currentColor"
       id="rect310" />
  </g>
  <g
     transform="translate(97.4337,12.87086)"
     id="g316">
    <rect
       x="0"
       y="-0.55000001"
       width="0.66000003"
       height="0.13"
       ry="0.039999999"
       fill="currentColor"
       id="rect314" />
  </g>
  <g
     transform="translate(99.148,8.6720602)"
     id="g320">
    <path
       transform="scale(0.004,-0.004)"
       d="m 218,136 c 66,0 108,-36 108,-89 0,-89 -113,-183 -218,-183 -66,0 -108,36 -108,89 0,89 113,183 218,183 z"
       fill="currentColor"
       id="path318" />
  </g>
  <g
     transform="translate(98.349,12.87086)"
     id="g326">
    <text
       font-family="'Charis SIL'"
       font-size="2.4696px"
       text-anchor="start"
       fill="currentColor"
       id="text324"><tspan
         id="tspan322">ješ</tspan></text>
  </g>
  <g
     transform="translate(103.5586,8.1720602)"
     id="g330">
    <path
       transform="scale(0.004,-0.004)"
       d="m 218,136 c 66,0 108,-36 108,-89 0,-89 -113,-183 -218,-183 -66,0 -108,36 -108,89 0,89 113,183 218,183 z"
       fill="currentColor"
       id="path328" />
  </g>
  <g
     transform="translate(101.7012,12.87086)"
     id="g336">
    <text
       font-family="'Charis SIL'"
       font-size="2.4696px"
       text-anchor="start"
       fill="currentColor"
       id="text334"><tspan
         id="tspan332">sám,</tspan></text>
  </g>
  <g
     transform="translate(102.5377,15.67086)"
     id="g342">
    <text
       font-family="'Charis SIL'"
       font-style="italic"
       font-size="2.4696px"
       text-anchor="start"
       fill="currentColor"
       id="text340"><tspan
         id="tspan338">gis,</tspan></text>
  </g>
  <g
     transform="translate(8.656,12.87086)"
     id="g346">
    <rect
       x="0"
       y="-0.55000001"
       width="0.49540001"
       height="0.13"
       ry="0.039999999"
       fill="currentColor"
       id="rect344" />
  </g>
  <g
     transform="translate(9.2037,15.67086)"
     id="g350">
    <rect
       x="0"
       y="-0.55000001"
       width="0.66000003"
       height="0.13"
       ry="0.039999999"
       fill="currentColor"
       id="rect348" />
  </g>
  <g
     transform="translate(9.935,6.1720602)"
     id="g354">
    <path
       stroke-width="0.08"
       stroke-linejoin="round"
       stroke-linecap="round"
       stroke="currentColor"
       fill="currentColor"
       d="M 8.9348,2.5865 C 8.9483,2.5728 8.9615,2.5589 8.9744,2.545 v 0 C 8.9614,2.5578 8.9481,2.5706 8.9345,2.5833 Z"
       id="path352" />
  </g>
  <g
     transform="translate(9.935,6.1720602)"
     id="g358">
    <path
       stroke-width="0.08"
       stroke-linejoin="round"
       stroke-linecap="round"
       stroke="currentColor"
       fill="currentColor"
       d="M 8.448,2.9759 C 8.4668,2.9638 8.4853,2.9515 8.5036,2.9391 L 8.5001,2.9099 C 8.4817,2.9213 8.463,2.9327 8.4441,2.944 Z"
       id="path356" />
  </g>
  <g
     transform="translate(9.935,6.1720602)"
     id="g362">
    <path
       stroke-width="0.08"
       stroke-linejoin="round"
       stroke-linecap="round"
       stroke="currentColor"
       fill="currentColor"
       d="M 7.8171,3.316 C 7.8402,3.3055 7.8631,3.2949 7.8858,3.2843 L 7.8794,3.2315 C 7.8566,3.2415 7.8337,3.2513 7.8105,3.2611 Z"
       id="path360" />
  </g>
  <g
     transform="translate(9.935,6.1720602)"
     id="g366">
    <path
       stroke-width="0.08"
       stroke-linejoin="round"
       stroke-linecap="round"
       stroke="currentColor"
       fill="currentColor"
       d="M 7.0729,3.603 C 7.0993,3.5943 7.1255,3.5856 7.1516,3.5767 L 7.143,3.5063 C 7.1169,3.5146 7.0906,3.5228 7.0642,3.531 Z"
       id="path364" />
  </g>
  <g
     transform="translate(9.935,6.1720602)"
     id="g370">
    <path
       stroke-width="0.08"
       stroke-linejoin="round"
       stroke-linecap="round"
       stroke="currentColor"
       fill="currentColor"
       d="M 6.2459,3.8332 C 6.2745,3.8265 6.303,3.8197 6.3314,3.8128 L 6.3215,3.7304 C 6.293,3.737 6.2644,3.7435 6.2358,3.7499 Z"
       id="path368" />
  </g>
  <g
     transform="translate(9.935,6.1720602)"
     id="g374">
    <path
       stroke-width="0.08"
       stroke-linejoin="round"
       stroke-linecap="round"
       stroke="currentColor"
       fill="currentColor"
       d="M 5.3665,4.0029 C 5.3964,3.9983 5.4262,3.9936 5.4559,3.9888 L 5.4452,3.9003 C 5.4155,3.905 5.3857,3.9096 5.3558,3.9142 Z"
       id="path372" />
  </g>
  <g
     transform="translate(9.935,6.1720602)"
     id="g378">
    <path
       stroke-width="0.08"
       stroke-linejoin="round"
       stroke-linecap="round"
       stroke="currentColor"
       fill="currentColor"
       d="M 4.4655,4.1085 C 4.4956,4.1061 4.5256,4.1036 4.5557,4.101 L 4.545,4.0122 C 4.5149,4.0149 4.4848,4.0176 4.4548,4.0201 Z"
       id="path376" />
  </g>
  <g
     transform="translate(9.935,6.1720602)"
     id="g382">
    <path
       stroke-width="0.08"
       stroke-linejoin="round"
       stroke-linecap="round"
       stroke="currentColor"
       fill="currentColor"
       d="m 3.5733,4.1463 c 0.0293,-10e-5 0.0586,-3e-4 0.088,-6e-4 L 3.6512,4.0624 C 3.6219,4.063 3.5926,4.0635 3.5634,4.0639 Z"
       id="path380" />
  </g>
  <g
     transform="translate(9.935,6.1720602)"
     id="g386">
    <path
       stroke-width="0.08"
       stroke-linejoin="round"
       stroke-linecap="round"
       stroke="currentColor"
       fill="currentColor"
       d="M 2.7205,4.1125 C 2.748,4.1149 2.7755,4.1171 2.8032,4.1192 L 2.7945,4.0473 C 2.7669,4.0457 2.7394,4.0439 2.712,4.042 Z"
       id="path384" />
  </g>
  <g
     transform="translate(9.935,6.1720602)"
     id="g390">
    <path
       stroke-width="0.08"
       stroke-linejoin="round"
       stroke-linecap="round"
       stroke="currentColor"
       fill="currentColor"
       d="M 1.9377,4.0035 C 1.9623,4.0084 1.9871,4.0132 2.012,4.0179 L 2.0054,3.9631 C 1.9805,3.9591 1.9559,3.955 1.9314,3.9507 Z"
       id="path388" />
  </g>
  <g
     transform="translate(9.935,6.1720602)"
     id="g394">
    <path
       stroke-width="0.08"
       stroke-linejoin="round"
       stroke-linecap="round"
       stroke="currentColor"
       fill="currentColor"
       d="M 1.2555,3.8156 C 1.2762,3.8232 1.2971,3.8307 1.3183,3.838 L 1.3144,3.8061 C 1.2934,3.7996 1.2726,3.793 1.2519,3.7863 Z"
       id="path392" />
  </g>
  <g
     transform="translate(9.935,6.1720602)"
     id="g398">
    <path
       stroke-width="0.08"
       stroke-linejoin="round"
       stroke-linecap="round"
       stroke="currentColor"
       fill="currentColor"
       d="m 0.7043,3.545 c 0.0158,0.0104 0.032,0.0207 0.0483,0.0309 L 0.7523,3.5727 C 0.736,3.5636 0.72,3.5544 0.7043,3.545 Z"
       id="path396" />
  </g>
  <g
     transform="translate(22.3402,6.1720602)"
     id="g402">
    <path
       stroke-width="0.08"
       stroke-linejoin="round"
       stroke-linecap="round"
       stroke="currentColor"
       fill="currentColor"
       d="M 8.9525,4.0762 C 8.9691,4.0659 8.9853,4.0555 9.0013,4.045 v 0 C 8.9854,4.0545 8.9693,4.0638 8.9529,4.073 Z"
       id="path400" />
  </g>
  <g
     transform="translate(22.3402,6.1720602)"
     id="g406">
    <path
       stroke-width="0.08"
       stroke-linejoin="round"
       stroke-linecap="round"
       stroke="currentColor"
       fill="currentColor"
       d="M 8.3808,4.3407 C 8.4022,4.3333 8.4234,4.3257 8.4444,4.318 L 8.4479,4.2887 C 8.427,4.2955 8.4059,4.3022 8.3846,4.3088 Z"
       id="path404" />
  </g>
  <g
     transform="translate(22.3402,6.1720602)"
     id="g410">
    <path
       stroke-width="0.08"
       stroke-linejoin="round"
       stroke-linecap="round"
       stroke="currentColor"
       fill="currentColor"
       d="M 7.6777,4.5224 C 7.703,4.5177 7.7281,4.5128 7.753,4.5078 L 7.7593,4.455 C 7.7344,4.4593 7.7094,4.4635 7.6842,4.4675 Z"
       id="path408" />
  </g>
  <g
     transform="translate(22.3402,6.1720602)"
     id="g414">
    <path
       stroke-width="0.08"
       stroke-linejoin="round"
       stroke-linecap="round"
       stroke="currentColor"
       fill="currentColor"
       d="M 6.8744,4.625 C 6.9025,4.6228 6.9305,4.6205 6.9584,4.6181 L 6.9667,4.5476 C 6.9389,4.5495 6.911,4.5513 6.883,4.553 Z"
       id="path412" />
  </g>
  <g
     transform="translate(22.3402,6.1720602)"
     id="g418">
    <path
       stroke-width="0.08"
       stroke-linejoin="round"
       stroke-linecap="round"
       stroke="currentColor"
       fill="currentColor"
       d="m 6.0023,4.6522 c 0.0299,3e-4 0.0597,5e-4 0.0894,5e-4 L 6.1016,4.5703 C 6.0719,4.57 6.0421,4.5695 6.0122,4.5689 Z"
       id="path416" />
  </g>
  <g
     transform="translate(22.3402,6.1720602)"
     id="g422">
    <path
       stroke-width="0.08"
       stroke-linejoin="round"
       stroke-linecap="round"
       stroke="currentColor"
       fill="currentColor"
       d="M 5.0927,4.6077 C 5.1233,4.6103 5.1539,4.6129 5.1845,4.6153 L 5.195,4.5268 C 5.1645,4.5243 5.1339,4.5217 5.1033,4.5189 Z"
       id="path420" />
  </g>
  <g
     transform="translate(22.3402,6.1720602)"
     id="g426">
    <path
       stroke-width="0.08"
       stroke-linejoin="round"
       stroke-linecap="round"
       stroke="currentColor"
       fill="currentColor"
       d="M 4.177,4.4953 C 4.2072,4.5002 4.2376,4.5049 4.2679,4.5095 L 4.2785,4.4207 C 4.2481,4.4162 4.2178,4.4116 4.1875,4.4068 Z"
       id="path424" />
  </g>
  <g
     transform="translate(22.3402,6.1720602)"
     id="g430">
    <path
       stroke-width="0.08"
       stroke-linejoin="round"
       stroke-linecap="round"
       stroke="currentColor"
       fill="currentColor"
       d="m 3.2863,4.3188 c 0.0289,0.0069 0.0579,0.0137 0.087,0.0204 L 3.3832,4.2559 C 3.3541,4.2495 3.325,4.243 3.2961,4.2364 Z"
       id="path428" />
  </g>
  <g
     transform="translate(22.3402,6.1720602)"
     id="g434">
    <path
       stroke-width="0.08"
       stroke-linejoin="round"
       stroke-linecap="round"
       stroke="currentColor"
       fill="currentColor"
       d="M 2.452,4.0817 C 2.4785,4.0906 2.5052,4.0994 2.532,4.108 L 2.5406,4.0361 C 2.5137,4.0279 2.487,4.0196 2.4604,4.0112 Z"
       id="path432" />
  </g>
  <g
     transform="translate(22.3402,6.1720602)"
     id="g438">
    <path
       stroke-width="0.08"
       stroke-linejoin="round"
       stroke-linecap="round"
       stroke="currentColor"
       fill="currentColor"
       d="M 1.7054,3.7879 C 1.7285,3.7986 1.7518,3.8092 1.7753,3.8197 L 1.7818,3.7649 C 1.7582,3.7551 1.7349,3.7451 1.7117,3.7351 Z"
       id="path436" />
  </g>
  <g
     transform="translate(22.3402,6.1720602)"
     id="g442">
    <path
       stroke-width="0.08"
       stroke-linejoin="round"
       stroke-linecap="round"
       stroke="currentColor"
       fill="currentColor"
       d="m 1.0779,3.4411 c 0.0186,0.0124 0.0374,0.0247 0.0565,0.037 L 1.1382,3.4462 C 1.119,3.4348 1.1001,3.4233 1.0814,3.4118 Z"
       id="path440" />
  </g>
  <g
     transform="translate(22.3402,6.1720602)"
     id="g446">
    <path
       stroke-width="0.08"
       stroke-linejoin="round"
       stroke-linecap="round"
       stroke="currentColor"
       fill="currentColor"
       d="m 0.6007,3.045 c 0.0131,0.014 0.0264,0.0279 0.0401,0.0417 l 4e-4,-0.0032 C 0.6274,3.0708 0.6139,3.0579 0.6007,3.045 Z"
       id="path444" />
  </g>
  <g
     transform="translate(12.5029,12.87086)"
     id="g452">
    <text
       font-family="'Charis SIL'"
       font-size="2.4696px"
       text-anchor="start"
       fill="currentColor"
       id="text450"><tspan
         id="tspan448">jenž</tspan></text>
  </g>
  <g
     transform="translate(18.2052,7.6720602)"
     id="g456">
    <path
       transform="scale(0.004,-0.004)"
       d="m 218,136 c 66,0 108,-36 108,-89 0,-89 -113,-183 -218,-183 -66,0 -108,36 -108,89 0,89 113,183 218,183 z"
       fill="currentColor"
       id="path454" />
  </g>
  <g
     transform="translate(17.6281,12.87086)"
     id="g462">
    <text
       font-family="'Charis SIL'"
       font-size="2.4696px"
       text-anchor="start"
       fill="currentColor"
       id="text460"><tspan
         id="tspan458">jsi</tspan></text>
  </g>
  <g
     transform="translate(22.3402,8.1720602)"
     id="g466">
    <path
       transform="scale(0.004,-0.004)"
       d="m 218,136 c 66,0 108,-36 108,-89 0,-89 -113,-183 -218,-183 -66,0 -108,36 -108,89 0,89 113,183 218,183 z"
       fill="currentColor"
       id="path464" />
  </g>
  <g
     transform="translate(20.8242,12.87086)"
     id="g472">
    <text
       font-family="'Charis SIL'"
       font-size="2.4696px"
       text-anchor="start"
       fill="currentColor"
       id="text470"><tspan
         id="tspan468">svět</tspan></text>
  </g>
  <g
     transform="translate(22.3402,15.67086)"
     id="g478">
    <text
       font-family="'Charis SIL'"
       font-style="italic"
       font-size="2.4696px"
       text-anchor="start"
       fill="currentColor"
       id="text476"><tspan
         id="tspan474">qui</tspan></text>
  </g>
  <g
     transform="translate(14.0701,8.1720602)"
     id="g482">
    <path
       transform="scale(0.004,-0.004)"
       d="m 218,136 c 66,0 108,-36 108,-89 0,-89 -113,-183 -218,-183 -66,0 -108,36 -108,89 0,89 113,183 218,183 z"
       fill="currentColor"
       id="path480" />
  </g>
  <g
     transform="translate(26.6057,8.6720602)"
     id="g486">
    <path
       transform="scale(0.004,-0.004)"
       d="m 218,136 c 66,0 108,-36 108,-89 0,-89 -113,-183 -218,-183 -66,0 -108,36 -108,89 0,89 113,183 218,183 z"
       fill="currentColor"
       id="path484" />
  </g>
  <g
     transform="translate(25.2604,12.87086)"
     id="g492">
    <text
       font-family="'Charis SIL'"
       font-size="2.4696px"
       text-anchor="start"
       fill="currentColor"
       id="text490"><tspan
         id="tspan488">lem</tspan></text>
  </g>
  <g
     transform="translate(30.7408,9.1720602)"
     id="g496">
    <path
       transform="scale(0.004,-0.004)"
       d="m 218,136 c 66,0 108,-36 108,-89 0,-89 -113,-183 -218,-183 -66,0 -108,36 -108,89 0,89 113,183 218,183 z"
       fill="currentColor"
       id="path494" />
  </g>
  <g
     transform="translate(31.0173,12.87086)"
     id="g502">
    <text
       font-family="'Charis SIL'"
       font-size="2.4696px"
       text-anchor="start"
       fill="currentColor"
       id="text500"><tspan
         id="tspan498">i</tspan></text>
  </g>
  <g
     transform="translate(5.8,8.6720602)"
     id="g506">
    <path
       transform="scale(0.004,-0.004)"
       d="m 218,136 c 66,0 108,-36 108,-89 0,-89 -113,-183 -218,-183 -66,0 -108,36 -108,89 0,89 113,183 218,183 z"
       fill="currentColor"
       id="path504" />
  </g>
  <g
     transform="translate(0.8,7.1720602)"
     id="g510">
    <path
       transform="scale(0.004,-0.004)"
       d="m 266,-635 h -6 c -108,0 -195,88 -195,197 0,58 53,103 112,103 54,0 95,-47 95,-103 0,-52 -43,-95 -95,-95 -11,0 -21,2 -31,6 26,-39 68,-65 117,-65 h 4 z m 195,432 c 68,24 113,90 113,164 0,90 -66,179 -173,190 19,-89 48,-242 60,-354 z M 74,28 c 0,-145 141,-247 264,-247 1,0 47,0 82,6 -7,64 -29,203 -63,364 -79,-8 -124,-61 -124,-119 0,-44 25,-91 81,-123 5,-5 7,-10 7,-15 0,-11 -10,-22 -22,-22 -15,0 -126,62 -126,187 0,88 58,174 160,197 -14,58 -29,117 -46,175 C 180,310 74,188 74,28 Z m 176,525 c -29,96 -52,170 -52,346 0,115 55,224 149,292 6,5 14,5 20,0 68,-80 133,-245 133,-358 0,-143 -86,-255 -180,-364 21,-68 39,-138 56,-207 2,0 7,1 13,1 155,0 256,-128 256,-261 0,-113 -74,-212 -180,-246 3,-35 5,-70 5,-105 0,-19 -1,-39 -2,-58 -7,-119 -88,-225 -202,-228 l 1,43 c 93,2 153,92 159,191 1,18 2,37 2,55 0,31 -1,61 -4,92 -5,-1 -44,-8 -89,-8 C 142,-262 2,-82 2,112 2,289 133,418 250,553 Z m 178,363 c 0,34 1,66 -20,129 -99,-48 -162,-149 -162,-259 0,-52 12,-115 36,-194 80,97 146,198 146,324 z"
       fill="currentColor"
       id="path508" />
  </g>
  <g
     transform="translate(4.3181,12.87086)"
     id="g516">
    <text
       font-family="'Charis SIL'"
       font-size="2.4696px"
       text-anchor="start"
       fill="currentColor"
       id="text514"><tspan
         id="tspan512">Kris</tspan></text>
  </g>
  <g
     transform="translate(3.7718,15.67086)"
     id="g522">
    <text
       font-family="'Charis SIL'"
       font-style="italic"
       font-size="2.4696px"
       text-anchor="start"
       fill="currentColor"
       id="text520"><tspan
         id="tspan518">Chris</tspan></text>
  </g>
  <g
     transform="translate(9.935,8.6720602)"
     id="g526">
    <path
       transform="scale(0.004,-0.004)"
       d="m 218,136 c 66,0 108,-36 108,-89 0,-89 -113,-183 -218,-183 -66,0 -108,36 -108,89 0,89 113,183 218,183 z"
       fill="currentColor"
       id="path524" />
  </g>
  <g
     transform="translate(9.2214,12.87086)"
     id="g532">
    <text
       font-family="'Charis SIL'"
       font-size="2.4696px"
       text-anchor="start"
       fill="currentColor"
       id="text530"><tspan
         id="tspan528">te,</tspan></text>
  </g>
  <g
     transform="translate(9.935,15.67086)"
     id="g538">
    <text
       font-family="'Charis SIL'"
       font-style="italic"
       font-size="2.4696px"
       text-anchor="start"
       fill="currentColor"
       id="text536"><tspan
         id="tspan534">te</tspan></text>
  </g>
  <g
     transform="translate(48.5833,8.1720602)"
     id="g542">
    <path
       transform="scale(0.004,-0.004)"
       d="m 218,136 c 66,0 108,-36 108,-89 0,-89 -113,-183 -218,-183 -66,0 -108,36 -108,89 0,89 113,183 218,183 z"
       fill="currentColor"
       id="path540" />
  </g>
  <g
     transform="translate(34.8759,8.6720602)"
     id="g546">
    <path
       transform="scale(0.004,-0.004)"
       d="m 218,136 c 66,0 108,-36 108,-89 0,-89 -113,-183 -218,-183 -66,0 -108,36 -108,89 0,89 113,183 218,183 z"
       fill="currentColor"
       id="path544" />
  </g>
  <g
     transform="translate(48.2624,15.67086)"
     id="g552">
    <text
       font-family="'Charis SIL'"
       font-style="italic"
       font-size="2.4696px"
       text-anchor="start"
       fill="currentColor"
       id="text550"><tspan
         id="tspan548">di</tspan></text>
  </g>
  <g
     transform="translate(52.7184,8.6720602)"
     id="g556">
    <path
       transform="scale(0.004,-0.004)"
       d="m 218,136 c 66,0 108,-36 108,-89 0,-89 -113,-183 -218,-183 -66,0 -108,36 -108,89 0,89 113,183 218,183 z"
       fill="currentColor"
       id="path554" />
  </g>
  <g
     transform="translate(52.7184,12.87086)"
     id="g562">
    <text
       font-family="'Charis SIL'"
       font-size="2.4696px"
       text-anchor="start"
       fill="currentColor"
       id="text560"><tspan
         id="tspan558">zván,</tspan></text>
  </g>
  <g
     transform="translate(52.0389,15.67086)"
     id="g568">
    <text
       font-family="'Charis SIL'"
       font-style="italic"
       font-size="2.4696px"
       text-anchor="start"
       fill="currentColor"
       id="text566"><tspan
         id="tspan564">es,</tspan></text>
  </g>
  <g
     transform="translate(47.9039,12.87086)"
     id="g574">
    <text
       font-family="'Charis SIL'"
       font-size="2.4696px"
       text-anchor="start"
       fill="currentColor"
       id="text572"><tspan
         id="tspan570">na</tspan></text>
  </g>
  <g
     transform="translate(58.2437,8.1720602)"
     id="g578">
    <path
       transform="scale(0.004,-0.004)"
       d="m 218,136 c 66,0 108,-36 108,-89 0,-89 -113,-183 -218,-183 -66,0 -108,36 -108,89 0,89 113,183 218,183 z"
       fill="currentColor"
       id="path576" />
  </g>
  <g
     transform="translate(57.0862,15.67086)"
     id="g584">
    <text
       font-family="'Charis SIL'"
       font-style="italic"
       font-size="2.4696px"
       text-anchor="start"
       fill="currentColor"
       id="text582"><tspan
         id="tspan580">noc</tspan></text>
  </g>
  <g
     transform="translate(58.0437,8.1720602)"
     id="g588">
    <path
       transform="scale(0.002,-0.002)"
       d="m -31,-250 c 0,-10 -9,-19 -19,-19 -5,0 -12,2 -16,8 -54,77 -90,167 -90,261 0,94 36,184 90,261 4,6 11,8 16,8 10,0 19,-9 19,-19 0,-21 -63,-57 -63,-250 0,-193 63,-229 63,-250 z"
       fill="currentColor"
       id="path586" />
  </g>
  <g
     transform="translate(59.7479,8.1720602)"
     id="g592">
    <path
       transform="scale(0.002,-0.002)"
       d="m 31,-250 c 0,21 63,57 63,250 0,193 -63,229 -63,250 0,10 9,19 19,19 5,0 12,-2 16,-8 54,-77 90,-167 90,-261 0,-94 -36,-184 -90,-261 -4,-6 -11,-8 -16,-8 -10,0 -19,9 -19,19 z"
       fill="currentColor"
       id="path590" />
  </g>
  <g
     transform="translate(34.4695,12.87086)"
     id="g598">
    <text
       font-family="'Charis SIL'"
       font-size="2.4696px"
       text-anchor="start"
       fill="currentColor"
       id="text596"><tspan
         id="tspan594">ta</tspan></text>
  </g>
  <g
     transform="translate(33.9062,15.67086)"
     id="g604">
    <text
       font-family="'Charis SIL'"
       font-style="italic"
       font-size="2.4696px"
       text-anchor="start"
       fill="currentColor"
       id="text602"><tspan
         id="tspan600">lux</tspan></text>
  </g>
  <g
     transform="translate(39.0109,8.1720602)"
     id="g608">
    <path
       transform="scale(0.004,-0.004)"
       d="m 218,136 c 66,0 108,-36 108,-89 0,-89 -113,-183 -218,-183 -66,0 -108,36 -108,89 0,89 113,183 218,183 z"
       fill="currentColor"
       id="path606" />
  </g>
  <g
     transform="translate(38.3997,12.87086)"
     id="g614">
    <text
       font-family="'Charis SIL'"
       font-size="2.4696px"
       text-anchor="start"
       fill="currentColor"
       id="text612"><tspan
         id="tspan610">ké</tspan></text>
  </g>
  <g
     transform="translate(38.6729,15.67086)"
     id="g620">
    <text
       font-family="'Charis SIL'"
       font-style="italic"
       font-size="2.4696px"
       text-anchor="start"
       fill="currentColor"
       id="text618"><tspan
         id="tspan616">es</tspan></text>
  </g>
  <g
     transform="translate(41.3763,12.87086)"
     id="g626">
    <text
       font-family="'Charis SIL'"
       font-size="2.4696px"
       text-anchor="start"
       fill="currentColor"
       id="text624"><tspan
         id="tspan622">dnem</tspan></text>
  </g>
  <g
     transform="translate(43.5103,15.67086)"
     id="g632">
    <text
       font-family="'Charis SIL'"
       font-style="italic"
       font-size="2.4696px"
       text-anchor="start"
       fill="currentColor"
       id="text630"><tspan
         id="tspan628">et</tspan></text>
  </g>
  <g
     transform="translate(43.763,7.6720602)"
     id="g636">
    <path
       transform="scale(0.004,-0.004)"
       d="m 218,136 c 66,0 108,-36 108,-89 0,-89 -113,-183 -218,-183 -66,0 -108,36 -108,89 0,89 113,183 218,183 z"
       fill="currentColor"
       id="path634" />
  </g>
  <g
     transform="translate(0,23.57526)"
     id="g640">
    <line
       stroke-linejoin="round"
       stroke-linecap="round"
       stroke-width="0.1"
       stroke="currentColor"
       x1="0.050000001"
       y1="0"
       x2="108.0705"
       y2="0"
       id="line638" />
  </g>
  <g
     transform="translate(0,22.57526)"
     id="g644">
    <line
       stroke-linejoin="round"
       stroke-linecap="round"
       stroke-width="0.1"
       stroke="currentColor"
       x1="0.050000001"
       y1="0"
       x2="108.0705"
       y2="0"
       id="line642" />
  </g>
  <g
     transform="translate(0,21.57526)"
     id="g648">
    <line
       stroke-linejoin="round"
       stroke-linecap="round"
       stroke-width="0.1"
       stroke="currentColor"
       x1="0.050000001"
       y1="0"
       x2="108.0705"
       y2="0"
       id="line646" />
  </g>
  <g
     transform="translate(0,20.57526)"
     id="g652">
    <line
       stroke-linejoin="round"
       stroke-linecap="round"
       stroke-width="0.1"
       stroke="currentColor"
       x1="0.050000001"
       y1="0"
       x2="108.0705"
       y2="0"
       id="line650" />
  </g>
  <g
     transform="translate(0,19.57526)"
     id="g656">
    <line
       stroke-linejoin="round"
       stroke-linecap="round"
       stroke-width="0.1"
       stroke="currentColor"
       x1="0.050000001"
       y1="0"
       x2="108.0705"
       y2="0"
       id="line654" />
  </g>
  <g
     transform="translate(107.9304,21.57526)"
     id="g660">
    <rect
       x="0"
       y="-2"
       width="0.19"
       height="4"
       ry="0.0000"
       fill="currentColor"
       id="rect658" />
  </g>
  <g
     transform="translate(107.4404,21.57526)"
     id="g664">
    <rect
       x="0"
       y="-2"
       width="0.19"
       height="4"
       ry="0.0000"
       fill="currentColor"
       id="rect662" />
  </g>
  <g
     transform="translate(55.8114,21.57526)"
     id="g668">
    <rect
       x="0"
       y="-1"
       width="0.19"
       height="2"
       ry="0.0000"
       fill="currentColor"
       id="rect666" />
  </g>
  <g
     transform="translate(0,24.57526)"
     id="g672">
    <rect
       x="79.597504"
       y="-0.1"
       width="1.9563"
       height="0.2"
       ry="0.1"
       fill="currentColor"
       id="rect670" />
  </g>
  <g
     transform="translate(87.6428,31.33636)"
     id="g678">
    <text
       font-family="'Charis SIL'"
       font-style="italic"
       font-size="2.4696px"
       text-anchor="start"
       fill="currentColor"
       id="text676"><tspan
         id="tspan674">tum</tspan></text>
  </g>
  <g
     transform="translate(79.3294,28.53636)"
     id="g684">
    <text
       font-family="'Charis SIL'"
       font-size="2.4696px"
       text-anchor="start"
       fill="currentColor"
       id="text682"><tspan
         id="tspan680">ve</tspan></text>
  </g>
  <g
     transform="translate(84.4473,24.07526)"
     id="g688">
    <path
       transform="scale(0.004,-0.004)"
       d="m 218,136 c 66,0 108,-36 108,-89 0,-89 -113,-183 -218,-183 -66,0 -108,36 -108,89 0,89 113,183 218,183 z"
       fill="currentColor"
       id="path686" />
  </g>
  <g
     transform="translate(83.8019,28.53636)"
     id="g694">
    <text
       font-family="'Charis SIL'"
       font-size="2.4696px"
       text-anchor="start"
       fill="currentColor"
       id="text692"><tspan
         id="tspan690">né</tspan></text>
  </g>
  <g
     transform="translate(84.4507,31.33636)"
     id="g700">
    <text
       font-family="'Charis SIL'"
       font-style="italic"
       font-size="2.4696px"
       text-anchor="start"
       fill="currentColor"
       id="text698"><tspan
         id="tspan696">a</tspan></text>
  </g>
  <g
     transform="translate(88.9711,23.57526)"
     id="g704">
    <path
       transform="scale(0.004,-0.004)"
       d="m 218,136 c 66,0 108,-36 108,-89 0,-89 -113,-183 -218,-183 -66,0 -108,36 -108,89 0,89 113,183 218,183 z"
       fill="currentColor"
       id="path702" />
  </g>
  <g
     transform="translate(88.9574,28.53636)"
     id="g710">
    <text
       font-family="'Charis SIL'"
       font-size="2.4696px"
       text-anchor="start"
       fill="currentColor"
       id="text708"><tspan
         id="tspan706">o</tspan></text>
  </g>
  <g
     transform="translate(97.0894,28.53636)"
     id="g716">
    <text
       font-family="'Charis SIL'"
       font-size="2.4696px"
       text-anchor="start"
       fill="currentColor"
       id="text714"><tspan
         id="tspan712">mu</tspan></text>
  </g>
  <g
     transform="translate(93.6548,23.07526)"
     id="g720">
    <path
       transform="scale(0.004,-0.004)"
       d="m 218,136 c 66,0 108,-36 108,-89 0,-89 -113,-183 -218,-183 -66,0 -108,36 -108,89 0,89 113,183 218,183 z"
       fill="currentColor"
       id="path718" />
  </g>
  <g
     transform="translate(92.412,28.53636)"
     id="g726">
    <text
       font-family="'Charis SIL'"
       font-size="2.4696px"
       text-anchor="start"
       fill="currentColor"
       id="text724"><tspan
         id="tspan722">zna</tspan></text>
  </g>
  <g
     transform="translate(92.0535,31.33636)"
     id="g732">
    <text
       font-family="'Charis SIL'"
       font-style="italic"
       font-size="2.4696px"
       text-anchor="start"
       fill="currentColor"
       id="text730"><tspan
         id="tspan728">prae</tspan></text>
  </g>
  <g
     transform="translate(98.1786,23.57526)"
     id="g736">
    <path
       transform="scale(0.004,-0.004)"
       d="m 218,136 c 66,0 108,-36 108,-89 0,-89 -113,-183 -218,-183 -66,0 -108,36 -108,89 0,89 113,183 218,183 z"
       fill="currentColor"
       id="path734" />
  </g>
  <g
     transform="translate(99.9346,31.33636)"
     id="g740">
    <rect
       x="0"
       y="-0.55000001"
       width="0.66000003"
       height="0.13"
       ry="0.039999999"
       fill="currentColor"
       id="rect738" />
  </g>
  <g
     transform="translate(61.8284,23.57526)"
     id="g744">
    <path
       transform="scale(0.004,-0.004)"
       d="m 218,136 c 66,0 108,-36 108,-89 0,-89 -113,-183 -218,-183 -66,0 -108,36 -108,89 0,89 113,183 218,183 z"
       fill="currentColor"
       id="path742" />
  </g>
  <g
     transform="translate(61.4562,28.53636)"
     id="g750">
    <text
       font-family="'Charis SIL'"
       font-size="2.4696px"
       text-anchor="start"
       fill="currentColor"
       id="text748"><tspan
         id="tspan746">lo</tspan></text>
  </g>
  <g
     transform="translate(66.3522,23.07526)"
     id="g754">
    <path
       transform="scale(0.004,-0.004)"
       d="m 218,136 c 66,0 108,-36 108,-89 0,-89 -113,-183 -218,-183 -66,0 -108,36 -108,89 0,89 113,183 218,183 z"
       fill="currentColor"
       id="path752" />
  </g>
  <g
     transform="translate(65.3313,28.53636)"
     id="g760">
    <text
       font-family="'Charis SIL'"
       font-size="2.4696px"
       text-anchor="start"
       fill="currentColor"
       id="text758"><tspan
         id="tspan756">bla</tspan></text>
  </g>
  <g
     transform="translate(64.8703,31.33636)"
     id="g766">
    <text
       font-family="'Charis SIL'"
       font-style="italic"
       font-size="2.4696px"
       text-anchor="start"
       fill="currentColor"
       id="text764"><tspan
         id="tspan762">men</tspan></text>
  </g>
  <g
     transform="translate(79.9235,24.57526)"
     id="g770">
    <path
       transform="scale(0.004,-0.004)"
       d="m 218,136 c 66,0 108,-36 108,-89 0,-89 -113,-183 -218,-183 -66,0 -108,36 -108,89 0,89 113,183 218,183 z"
       fill="currentColor"
       id="path768" />
  </g>
  <g
     transform="translate(70.876,23.57526)"
     id="g774">
    <path
       transform="scale(0.004,-0.004)"
       d="m 218,136 c 66,0 108,-36 108,-89 0,-89 -113,-183 -218,-183 -66,0 -108,36 -108,89 0,89 113,183 218,183 z"
       fill="currentColor"
       id="path772" />
  </g>
  <g
     transform="translate(70.1453,28.53636)"
     id="g780">
    <text
       font-family="'Charis SIL'"
       font-size="2.4696px"
       text-anchor="start"
       fill="currentColor"
       id="text778"><tspan
         id="tspan776">ho</tspan></text>
  </g>
  <g
     transform="translate(70.876,31.33636)"
     id="g786">
    <text
       font-family="'Charis SIL'"
       font-style="italic"
       font-size="2.4696px"
       text-anchor="start"
       fill="currentColor"
       id="text784"><tspan
         id="tspan782">be</tspan></text>
  </g>
  <g
     transform="translate(75.3997,24.07526)"
     id="g790">
    <path
       transform="scale(0.004,-0.004)"
       d="m 218,136 c 66,0 108,-36 108,-89 0,-89 -113,-183 -218,-183 -66,0 -108,36 -108,89 0,89 113,183 218,183 z"
       fill="currentColor"
       id="path788" />
  </g>
  <g
     transform="translate(74.5666,28.53636)"
     id="g796">
    <text
       font-family="'Charis SIL'"
       font-size="2.4696px"
       text-anchor="start"
       fill="currentColor"
       id="text794"><tspan
         id="tspan792">sla</tspan></text>
  </g>
  <g
     transform="translate(28.6688,21.57526)"
     id="g800">
    <path
       stroke-width="0.08"
       stroke-linejoin="round"
       stroke-linecap="round"
       stroke="currentColor"
       fill="currentColor"
       d="M 9.657,3.0796 C 9.6715,3.0682 9.6857,3.0566 9.6996,3.045 v 0 C 9.6857,3.0556 9.6715,3.0662 9.657,3.0767 Z"
       id="path798" />
  </g>
  <g
     transform="translate(28.6688,21.57526)"
     id="g804">
    <path
       stroke-width="0.08"
       stroke-linejoin="round"
       stroke-linecap="round"
       stroke="currentColor"
       fill="currentColor"
       d="M 9.1466,3.3939 C 9.166,3.3844 9.1852,3.3748 9.2041,3.3651 V 3.3378 C 9.1852,3.3467 9.166,3.3554 9.1466,3.3641 Z"
       id="path802" />
  </g>
  <g
     transform="translate(28.6688,21.57526)"
     id="g808">
    <path
       stroke-width="0.08"
       stroke-linejoin="round"
       stroke-linecap="round"
       stroke="currentColor"
       fill="currentColor"
       d="M 8.5026,3.6505 C 8.526,3.6429 8.5492,3.6352 8.5723,3.6275 V 3.5778 C 8.5492,3.5849 8.526,3.5919 8.5026,3.5989 Z"
       id="path806" />
  </g>
  <g
     transform="translate(28.6688,21.57526)"
     id="g812">
    <path
       stroke-width="0.08"
       stroke-linejoin="round"
       stroke-linecap="round"
       stroke="currentColor"
       fill="currentColor"
       d="M 7.752,3.8495 C 7.7785,3.8438 7.8049,3.838 7.8311,3.8322 V 3.7651 C 7.8049,3.7704 7.7785,3.7757 7.752,3.7809 Z"
       id="path810" />
  </g>
  <g
     transform="translate(28.6688,21.57526)"
     id="g816">
    <path
       stroke-width="0.08"
       stroke-linejoin="round"
       stroke-linecap="round"
       stroke="currentColor"
       fill="currentColor"
       d="M 6.9217,3.9908 C 6.9504,3.987 6.979,3.9832 7.0076,3.9792 V 3.8996 C 6.979,3.9032 6.9504,3.9067 6.9217,3.9101 Z"
       id="path814" />
  </g>
  <g
     transform="translate(28.6688,21.57526)"
     id="g820">
    <path
       stroke-width="0.08"
       stroke-linejoin="round"
       stroke-linecap="round"
       stroke="currentColor"
       fill="currentColor"
       d="m 6.0388,4.0744 c 0.03,-0.0018 0.06,-0.0038 0.0899,-0.0058 V 3.9813 C 6.0988,3.9832 6.0688,3.9849 6.0388,3.9866 Z"
       id="path818" />
  </g>
  <g
     transform="translate(28.6688,21.57526)"
     id="g824">
    <path
       stroke-width="0.08"
       stroke-linejoin="round"
       stroke-linecap="round"
       stroke="currentColor"
       fill="currentColor"
       d="m 5.1303,4.1003 c 0.0304,10e-5 0.0608,10e-5 0.0912,0 v -0.09 c -0.0304,10e-5 -0.0608,10e-5 -0.0912,0 z"
       id="path822" />
  </g>
  <g
     transform="translate(28.6688,21.57526)"
     id="g828">
    <path
       stroke-width="0.08"
       stroke-linejoin="round"
       stroke-linecap="round"
       stroke="currentColor"
       fill="currentColor"
       d="m 4.223,4.0686 c 0.03,0.002 0.0599,0.004 0.0899,0.0058 V 3.9866 C 4.2829,3.9849 4.253,3.9832 4.223,3.9813 Z"
       id="path826" />
  </g>
  <g
     transform="translate(28.6688,21.57526)"
     id="g832">
    <path
       stroke-width="0.08"
       stroke-linejoin="round"
       stroke-linecap="round"
       stroke="currentColor"
       fill="currentColor"
       d="M 3.3442,3.9792 C 3.3727,3.9832 3.4013,3.987 3.43,3.9908 V 3.9101 C 3.4013,3.9067 3.3727,3.9032 3.3442,3.8996 Z"
       id="path830" />
  </g>
  <g
     transform="translate(28.6688,21.57526)"
     id="g836">
    <path
       stroke-width="0.08"
       stroke-linejoin="round"
       stroke-linecap="round"
       stroke="currentColor"
       fill="currentColor"
       d="M 2.5207,3.8322 C 2.5469,3.838 2.5733,3.8438 2.5998,3.8495 V 3.7809 C 2.5733,3.7757 2.5469,3.7704 2.5207,3.7651 Z"
       id="path834" />
  </g>
  <g
     transform="translate(28.6688,21.57526)"
     id="g840">
    <path
       stroke-width="0.08"
       stroke-linejoin="round"
       stroke-linecap="round"
       stroke="currentColor"
       fill="currentColor"
       d="m 1.7795,3.6275 c 0.023,0.0077 0.0462,0.0154 0.0696,0.023 V 3.5989 C 1.8257,3.5919 1.8025,3.5849 1.7795,3.5778 Z"
       id="path838" />
  </g>
  <g
     transform="translate(28.6688,21.57526)"
     id="g844">
    <path
       stroke-width="0.08"
       stroke-linejoin="round"
       stroke-linecap="round"
       stroke="currentColor"
       fill="currentColor"
       d="m 1.1476,3.3651 c 0.019,0.0097 0.0381,0.0193 0.0575,0.0288 V 3.3641 C 1.1857,3.3554 1.1666,3.3467 1.1476,3.3378 Z"
       id="path842" />
  </g>
  <g
     transform="translate(28.6688,21.57526)"
     id="g848">
    <path
       stroke-width="0.08"
       stroke-linejoin="round"
       stroke-linecap="round"
       stroke="currentColor"
       fill="currentColor"
       d="m 0.6521,3.045 c 0.014,0.0116 0.0282,0.0232 0.0427,0.0346 V 3.0767 C 0.6803,3.0662 0.6661,3.0556 0.6521,3.045 Z"
       id="path846" />
  </g>
  <g
     transform="translate(45.0204,28.53636)"
     id="g852">
    <rect
       x="0"
       y="-0.55000001"
       width="0.66000003"
       height="0.13"
       ry="0.039999999"
       fill="currentColor"
       id="rect850" />
  </g>
  <g
     transform="translate(44.9948,31.33636)"
     id="g856">
    <rect
       x="0"
       y="-0.55000001"
       width="0.66000003"
       height="0.13"
       ry="0.039999999"
       fill="currentColor"
       id="rect854" />
  </g>
  <g
     transform="translate(48.7845,28.53636)"
     id="g860">
    <rect
       x="0"
       y="-0.55000001"
       width="0.66000003"
       height="0.13"
       ry="0.039999999"
       fill="currentColor"
       id="rect858" />
  </g>
  <g
     transform="translate(49.143,31.33636)"
     id="g864">
    <rect
       x="0"
       y="-0.55000001"
       width="0.66000003"
       height="0.13"
       ry="0.039999999"
       fill="currentColor"
       id="rect862" />
  </g>
  <g
     transform="translate(57.3047,21.57526)"
     id="g868">
    <path
       stroke-width="0.08"
       stroke-linejoin="round"
       stroke-linecap="round"
       stroke="currentColor"
       fill="currentColor"
       d="M 5.1753,3.0985 C 5.1918,3.0809 5.2079,3.063 5.2236,3.045 v 0 C 5.2077,3.0611 5.1914,3.077 5.1747,3.0927 Z"
       id="path866" />
  </g>
  <g
     transform="translate(57.3047,21.57526)"
     id="g872">
    <path
       stroke-width="0.08"
       stroke-linejoin="round"
       stroke-linecap="round"
       stroke="currentColor"
       fill="currentColor"
       d="M 4.5809,3.5571 C 4.6037,3.5441 4.6262,3.531 4.6484,3.5175 L 4.643,3.4685 C 4.6206,3.4806 4.598,3.4925 4.5751,3.5042 Z"
       id="path870" />
  </g>
  <g
     transform="translate(57.3047,21.57526)"
     id="g876">
    <path
       stroke-width="0.08"
       stroke-linejoin="round"
       stroke-linecap="round"
       stroke="currentColor"
       fill="currentColor"
       d="M 3.8327,3.8723 C 3.8595,3.8643 3.886,3.856 3.9125,3.8475 L 3.9038,3.7686 C 3.8773,3.7765 3.8506,3.7841 3.8238,3.7915 Z"
       id="path874" />
  </g>
  <g
     transform="translate(57.3047,21.57526)"
     id="g880">
    <path
       stroke-width="0.08"
       stroke-linejoin="round"
       stroke-linecap="round"
       stroke="currentColor"
       fill="currentColor"
       d="M 3.0007,4.0364 C 3.029,4.0336 3.0574,4.0304 3.0857,4.027 L 3.0758,3.9376 C 3.0475,3.941 3.0192,3.9441 2.9908,3.947 Z"
       id="path878" />
  </g>
  <g
     transform="translate(57.3047,21.57526)"
     id="g884">
    <path
       stroke-width="0.08"
       stroke-linejoin="round"
       stroke-linecap="round"
       stroke="currentColor"
       fill="currentColor"
       d="M 2.1546,4.0417 C 2.1823,4.0443 2.21,4.0466 2.2379,4.0486 L 2.2289,3.9678 C 2.2012,3.9664 2.1735,3.9648 2.1459,3.9629 Z"
       id="path882" />
  </g>
  <g
     transform="translate(57.3047,21.57526)"
     id="g888">
    <path
       stroke-width="0.08"
       stroke-linejoin="round"
       stroke-linecap="round"
       stroke="currentColor"
       fill="currentColor"
       d="M 1.3644,3.8805 C 1.389,3.8887 1.4139,3.8967 1.4389,3.9043 L 1.4331,3.8515 C 1.4082,3.8451 1.3835,3.8384 1.359,3.8315 Z"
       id="path886" />
  </g>
  <g
     transform="translate(57.3047,21.57526)"
     id="g892">
    <path
       stroke-width="0.08"
       stroke-linejoin="round"
       stroke-linecap="round"
       stroke="currentColor"
       fill="currentColor"
       d="M 0.6999,3.545 C 0.7191,3.5592 0.7388,3.573 0.7587,3.5866 L 0.758,3.5808 C 0.7383,3.5692 0.7189,3.5572 0.6999,3.545 Z"
       id="path890" />
  </g>
  <g
     transform="translate(60.4605,28.53636)"
     id="g896">
    <rect
       x="0"
       y="-0.55000001"
       width="0.66000003"
       height="0.13"
       ry="0.039999999"
       fill="currentColor"
       id="rect894" />
  </g>
  <g
     transform="translate(61.7306,31.33636)"
     id="g900">
    <rect
       x="0"
       y="-0.55000001"
       width="0.66000003"
       height="0.13"
       ry="0.039999999"
       fill="currentColor"
       id="rect898" />
  </g>
  <g
     transform="translate(69.0813,28.53636)"
     id="g904">
    <rect
       x="0"
       y="-0.55000001"
       width="0.66000003"
       height="0.13"
       ry="0.039999999"
       fill="currentColor"
       id="rect902" />
  </g>
  <g
     transform="translate(70.876,21.57526)"
     id="g908">
    <path
       stroke-width="0.08"
       stroke-linejoin="round"
       stroke-linecap="round"
       stroke="currentColor"
       fill="currentColor"
       d="M 9.6055,4.0748 C 9.6212,4.065 9.6367,4.0551 9.6519,4.045 v 0 C 9.6368,4.0541 9.6215,4.063 9.6059,4.0718 Z"
       id="path906" />
  </g>
  <g
     transform="translate(70.876,21.57526)"
     id="g912">
    <path
       stroke-width="0.08"
       stroke-linejoin="round"
       stroke-linecap="round"
       stroke="currentColor"
       fill="currentColor"
       d="M 9.0613,4.3316 C 9.0817,4.3242 9.102,4.3168 9.1219,4.3092 L 9.1249,4.2821 C 9.105,4.2888 9.0849,4.2955 9.0646,4.302 Z"
       id="path910" />
  </g>
  <g
     transform="translate(70.876,21.57526)"
     id="g916">
    <path
       stroke-width="0.08"
       stroke-linejoin="round"
       stroke-linecap="round"
       stroke="currentColor"
       fill="currentColor"
       d="M 8.3894,4.5161 C 8.4136,4.5111 8.4377,4.506 8.4616,4.5008 L 8.467,4.4514 C 8.4432,4.456 8.4192,4.4604 8.3951,4.4648 Z"
       id="path914" />
  </g>
  <g
     transform="translate(70.876,21.57526)"
     id="g920">
    <path
       stroke-width="0.08"
       stroke-linejoin="round"
       stroke-linecap="round"
       stroke="currentColor"
       fill="currentColor"
       d="M 7.6169,4.6314 C 7.644,4.6286 7.671,4.6258 7.6979,4.6229 L 7.7052,4.5561 C 7.6784,4.5586 7.6515,4.5609 7.6244,4.5632 Z"
       id="path918" />
  </g>
  <g
     transform="translate(70.876,21.57526)"
     id="g924">
    <path
       stroke-width="0.08"
       stroke-linejoin="round"
       stroke-linecap="round"
       stroke="currentColor"
       fill="currentColor"
       d="M 6.7708,4.6803 C 6.7999,4.6798 6.8289,4.6791 6.8579,4.6783 L 6.8667,4.5991 c -0.029,5e-4 -0.058,8e-4 -0.0871,0.0011 z"
       id="path922" />
  </g>
  <g
     transform="translate(70.876,21.57526)"
     id="g928">
    <path
       stroke-width="0.08"
       stroke-linejoin="round"
       stroke-linecap="round"
       stroke="currentColor"
       fill="currentColor"
       d="M 5.8782,4.666 C 5.9084,4.6675 5.9386,4.6689 5.9688,4.6702 L 5.9784,4.5834 C 5.9482,4.582 5.9181,4.5804 5.8878,4.5787 Z"
       id="path926" />
  </g>
  <g
     transform="translate(70.876,21.57526)"
     id="g932">
    <path
       stroke-width="0.08"
       stroke-linejoin="round"
       stroke-linecap="round"
       stroke="currentColor"
       fill="currentColor"
       d="M 4.9663,4.5914 C 4.9967,4.5948 5.0271,4.5982 5.0576,4.6015 L 5.0674,4.512 C 5.037,4.5087 5.0066,4.5054 4.9761,4.5019 Z"
       id="path930" />
  </g>
  <g
     transform="translate(70.876,21.57526)"
     id="g936">
    <path
       stroke-width="0.08"
       stroke-linejoin="round"
       stroke-linecap="round"
       stroke="currentColor"
       fill="currentColor"
       d="M 4.062,4.4594 C 4.0917,4.4648 4.1215,4.47 4.1513,4.4751 L 4.161,4.3879 C 4.1311,4.3829 4.1013,4.3778 4.0716,4.3727 Z"
       id="path934" />
  </g>
  <g
     transform="translate(70.876,21.57526)"
     id="g940">
    <path
       stroke-width="0.08"
       stroke-linejoin="round"
       stroke-linecap="round"
       stroke="currentColor"
       fill="currentColor"
       d="m 3.1926,4.2732 c 0.0281,0.0071 0.0563,0.0141 0.0846,0.021 L 3.286,4.214 C 3.2577,4.2074 3.2295,4.2008 3.2013,4.194 Z"
       id="path938" />
  </g>
  <g
     transform="translate(70.876,21.57526)"
     id="g944">
    <path
       stroke-width="0.08"
       stroke-linejoin="round"
       stroke-linecap="round"
       stroke="currentColor"
       fill="currentColor"
       d="M 2.385,4.0356 C 2.4106,4.0444 2.4363,4.053 2.4622,4.0616 L 2.4697,3.9934 C 2.4438,3.9853 2.418,3.9772 2.3924,3.9689 Z"
       id="path942" />
  </g>
  <g
     transform="translate(70.876,21.57526)"
     id="g948">
    <path
       stroke-width="0.08"
       stroke-linejoin="round"
       stroke-linecap="round"
       stroke="currentColor"
       fill="currentColor"
       d="M 1.6664,3.7498 C 1.6886,3.7601 1.7109,3.7703 1.7335,3.7804 L 1.7391,3.7291 C 1.7165,3.7196 1.6941,3.71 1.6718,3.7004 Z"
       id="path946" />
  </g>
  <g
     transform="translate(70.876,21.57526)"
     id="g952">
    <path
       stroke-width="0.08"
       stroke-linejoin="round"
       stroke-linecap="round"
       stroke="currentColor"
       fill="currentColor"
       d="M 1.0638,3.4186 C 1.0817,3.4303 1.0997,3.442 1.1181,3.4536 L 1.1213,3.4241 C 1.1029,3.4132 1.0847,3.4024 1.0668,3.3914 Z"
       id="path950" />
  </g>
  <g
     transform="translate(70.876,21.57526)"
     id="g956">
    <path
       stroke-width="0.08"
       stroke-linejoin="round"
       stroke-linecap="round"
       stroke="currentColor"
       fill="currentColor"
       d="M 0.6043,3.045 C 0.617,3.0581 0.6299,3.0712 0.6431,3.0842 l 3e-4,-0.003 C 0.6301,3.0692 0.6171,3.0571 0.6043,3.045 Z"
       id="path954" />
  </g>
  <g
     transform="translate(73.4087,28.53636)"
     id="g960">
    <rect
       x="0"
       y="-0.55000001"
       width="0.66000003"
       height="0.13"
       ry="0.039999999"
       fill="currentColor"
       id="rect958" />
  </g>
  <g
     transform="translate(78.4771,31.33636)"
     id="g964">
    <rect
       x="0"
       y="-0.55000001"
       width="0.66000003"
       height="0.13"
       ry="0.039999999"
       fill="currentColor"
       id="rect962" />
  </g>
  <g
     transform="translate(78.1032,28.53636)"
     id="g968">
    <rect
       x="0"
       y="-0.55000001"
       width="0.66000003"
       height="0.13"
       ry="0.039999999"
       fill="currentColor"
       id="rect966" />
  </g>
  <g
     transform="translate(82.4819,28.53636)"
     id="g972">
    <rect
       x="0"
       y="-0.55000001"
       width="0.66000003"
       height="0.13"
       ry="0.039999999"
       fill="currentColor"
       id="rect970" />
  </g>
  <g
     transform="translate(86.3655,31.33636)"
     id="g976">
    <rect
       x="0"
       y="-0.55000001"
       width="0.66000003"
       height="0.13"
       ry="0.039999999"
       fill="currentColor"
       id="rect974" />
  </g>
  <g
     transform="translate(91.0205,28.53636)"
     id="g980">
    <rect
       x="0"
       y="-0.55000001"
       width="0.66000003"
       height="0.13"
       ry="0.039999999"
       fill="currentColor"
       id="rect978" />
  </g>
  <g
     transform="translate(96.3156,28.53636)"
     id="g984">
    <rect
       x="0"
       y="-0.55000001"
       width="0.66000003"
       height="0.13"
       ry="0.039999999"
       fill="currentColor"
       id="rect982" />
  </g>
  <g
     transform="translate(96.879,31.33636)"
     id="g988">
    <rect
       x="0"
       y="-0.55000001"
       width="0.66000003"
       height="0.13"
       ry="0.039999999"
       fill="currentColor"
       id="rect986" />
  </g>
  <g
     transform="translate(100.737,28.53636)"
     id="g992">
    <rect
       x="0"
       y="-0.55000001"
       width="0.66000003"
       height="0.13"
       ry="0.039999999"
       fill="currentColor"
       id="rect990" />
  </g>
  <g
     transform="translate(102.7024,24.07526)"
     id="g996">
    <path
       transform="scale(0.004,-0.004)"
       d="m 218,136 c 66,0 108,-36 108,-89 0,-89 -113,-183 -218,-183 -66,0 -108,36 -108,89 0,89 113,183 218,183 z"
       fill="currentColor"
       id="path994" />
  </g>
  <g
     transform="translate(101.5619,28.53636)"
     id="g1002">
    <text
       font-family="'Charis SIL'"
       font-size="2.4696px"
       text-anchor="start"
       fill="currentColor"
       id="text1000"><tspan
         id="tspan998">ješ.</tspan></text>
  </g>
  <g
     transform="translate(100.7254,31.33636)"
     id="g1008">
    <text
       font-family="'Charis SIL'"
       font-style="italic"
       font-size="2.4696px"
       text-anchor="start"
       fill="currentColor"
       id="text1006"><tspan
         id="tspan1004">cans.</tspan></text>
  </g>
  <g
     transform="translate(97.8576,31.33636)"
     id="g1014">
    <text
       font-family="'Charis SIL'"
       font-style="italic"
       font-size="2.4696px"
       text-anchor="start"
       fill="currentColor"
       id="text1012"><tspan
         id="tspan1010">di</tspan></text>
  </g>
  <g
     transform="translate(9.2669,28.53636)"
     id="g1018">
    <rect
       x="0"
       y="-0.55000001"
       width="0.66000003"
       height="0.13"
       ry="0.039999999"
       fill="currentColor"
       id="rect1016" />
  </g>
  <g
     transform="translate(8.3382,31.33636)"
     id="g1022">
    <rect
       x="0"
       y="-0.55000001"
       width="0.66000003"
       height="0.13"
       ry="0.039999999"
       fill="currentColor"
       id="rect1020" />
  </g>
  <g
     transform="translate(12.9016,31.33636)"
     id="g1026">
    <rect
       x="0"
       y="-0.55000001"
       width="0.66000003"
       height="0.13"
       ry="0.039999999"
       fill="currentColor"
       id="rect1024" />
  </g>
  <g
     transform="translate(19.6213,21.57526)"
     id="g1030">
    <path
       stroke-width="0.08"
       stroke-linejoin="round"
       stroke-linecap="round"
       stroke="currentColor"
       fill="currentColor"
       d="M 5.0851,2.5884 C 5.1045,2.5743 5.1236,2.5598 5.1423,2.545 v 0 C 5.1237,2.5578 5.1048,2.5704 5.0855,2.5827 Z"
       id="path1028" />
  </g>
  <g
     transform="translate(19.6213,21.57526)"
     id="g1034">
    <path
       stroke-width="0.08"
       stroke-linejoin="round"
       stroke-linecap="round"
       stroke="currentColor"
       fill="currentColor"
       d="M 4.4175,2.9277 C 4.4422,2.9193 4.4667,2.9105 4.4909,2.9015 L 4.4947,2.8523 C 4.4706,2.86 4.4462,2.8675 4.4216,2.8747 Z"
       id="path1032" />
  </g>
  <g
     transform="translate(19.6213,21.57526)"
     id="g1038">
    <path
       stroke-width="0.08"
       stroke-linejoin="round"
       stroke-linecap="round"
       stroke="currentColor"
       fill="currentColor"
       d="M 3.6262,3.0979 C 3.6538,3.095 3.6814,3.0918 3.7089,3.0883 L 3.715,3.0092 C 3.6876,3.012 3.66,3.0145 3.6324,3.0168 Z"
       id="path1036" />
  </g>
  <g
     transform="translate(19.6213,21.57526)"
     id="g1042">
    <path
       stroke-width="0.08"
       stroke-linejoin="round"
       stroke-linecap="round"
       stroke="currentColor"
       fill="currentColor"
       d="m 2.7809,3.1043 c 0.0283,0.0024 0.0566,0.0046 0.085,0.0065 L 2.8728,3.0211 C 2.8445,3.0192 2.8162,3.017 2.7878,3.0146 Z"
       id="path1040" />
  </g>
  <g
     transform="translate(19.6213,21.57526)"
     id="g1046">
    <path
       stroke-width="0.08"
       stroke-linejoin="round"
       stroke-linecap="round"
       stroke="currentColor"
       fill="currentColor"
       d="M 1.9514,2.9523 C 1.978,2.96 2.0048,2.9674 2.0317,2.9745 L 2.0379,2.8935 C 2.011,2.887 1.9842,2.8802 1.9575,2.8732 Z"
       id="path1044" />
  </g>
  <g
     transform="translate(19.6213,21.57526)"
     id="g1050">
    <path
       stroke-width="0.08"
       stroke-linejoin="round"
       stroke-linecap="round"
       stroke="currentColor"
       fill="currentColor"
       d="M 1.2074,2.6474 C 1.23,2.6601 1.2529,2.6725 1.276,2.6847 L 1.2801,2.6316 C 1.2569,2.6207 1.2339,2.6096 1.2112,2.5983 Z"
       id="path1048" />
  </g>
  <g
     transform="translate(19.6213,21.57526)"
     id="g1054">
    <path
       stroke-width="0.08"
       stroke-linejoin="round"
       stroke-linecap="round"
       stroke="currentColor"
       fill="currentColor"
       d="m 0.6186,2.195 c 0.0162,0.0175 0.0329,0.0347 0.0499,0.0517 l 4e-4,-0.0058 C 0.6518,2.2258 0.635,2.2105 0.6186,2.195 Z"
       id="path1052" />
  </g>
  <g
     transform="translate(23.4333,28.53636)"
     id="g1058">
    <rect
       x="0"
       y="-0.55000001"
       width="0.30360001"
       height="0.13"
       ry="0.039999999"
       fill="currentColor"
       id="rect1056" />
  </g>
  <g
     transform="translate(24.7881,31.33636)"
     id="g1062">
    <rect
       x="0"
       y="-0.55000001"
       width="0.66000003"
       height="0.13"
       ry="0.039999999"
       fill="currentColor"
       id="rect1060" />
  </g>
  <g
     transform="translate(15.0975,22.57526)"
     id="g1066">
    <path
       transform="scale(0.004,-0.004)"
       d="m 218,136 c 66,0 108,-36 108,-89 0,-89 -113,-183 -218,-183 -66,0 -108,36 -108,89 0,89 113,183 218,183 z"
       fill="currentColor"
       id="path1064" />
  </g>
  <g
     transform="translate(13.9229,31.33636)"
     id="g1072">
    <text
       font-family="'Charis SIL'"
       font-style="italic"
       font-size="2.4696px"
       text-anchor="start"
       fill="currentColor"
       id="text1070"><tspan
         id="tspan1068">que</tspan></text>
  </g>
  <g
     transform="translate(14.8975,22.57526)"
     id="g1076">
    <path
       transform="scale(0.002,-0.002)"
       d="m -31,-250 c 0,-10 -9,-19 -19,-19 -5,0 -12,2 -16,8 -54,77 -90,167 -90,261 0,94 36,184 90,261 4,6 11,8 16,8 10,0 19,-9 19,-19 0,-21 -63,-57 -63,-250 0,-193 63,-229 63,-250 z"
       fill="currentColor"
       id="path1074" />
  </g>
  <g
     transform="translate(16.6017,22.57526)"
     id="g1080">
    <path
       transform="scale(0.002,-0.002)"
       d="m 31,-250 c 0,21 63,57 63,250 0,193 -63,229 -63,250 0,10 9,19 19,19 5,0 12,-2 16,-8 54,-77 90,-167 90,-261 0,-94 -36,-184 -90,-261 -4,-6 -11,-8 -16,-8 -10,0 -19,9 -19,19 z"
       fill="currentColor"
       id="path1078" />
  </g>
  <g
     transform="translate(19.6213,22.57526)"
     id="g1084">
    <path
       transform="scale(0.004,-0.004)"
       d="m 218,136 c 66,0 108,-36 108,-89 0,-89 -113,-183 -218,-183 -66,0 -108,36 -108,89 0,89 113,183 218,183 z"
       fill="currentColor"
       id="path1082" />
  </g>
  <g
     transform="translate(17.1834,28.53636)"
     id="g1090">
    <text
       font-family="'Charis SIL'"
       font-size="2.4696px"
       text-anchor="start"
       fill="currentColor"
       id="text1088"><tspan
         id="tspan1086">z svět</tspan></text>
  </g>
  <g
     transform="translate(19.6213,31.33636)"
     id="g1096">
    <text
       font-family="'Charis SIL'"
       font-style="italic"
       font-size="2.4696px"
       text-anchor="start"
       fill="currentColor"
       id="text1094"><tspan
         id="tspan1092">lu</tspan></text>
  </g>
  <g
     transform="translate(24.145,23.07526)"
     id="g1100">
    <path
       transform="scale(0.004,-0.004)"
       d="m 218,136 c 66,0 108,-36 108,-89 0,-89 -113,-183 -218,-183 -66,0 -108,36 -108,89 0,89 113,183 218,183 z"
       fill="currentColor"
       id="path1098" />
  </g>
  <g
     transform="translate(23.807,28.53636)"
     id="g1106">
    <text
       font-family="'Charis SIL'"
       font-size="2.4696px"
       text-anchor="start"
       fill="currentColor"
       id="text1104"><tspan
         id="tspan1102">la</tspan></text>
  </g>
  <g
     transform="translate(28.6688,23.57526)"
     id="g1110">
    <path
       transform="scale(0.004,-0.004)"
       d="m 218,136 c 66,0 108,-36 108,-89 0,-89 -113,-183 -218,-183 -66,0 -108,36 -108,89 0,89 113,183 218,183 z"
       fill="currentColor"
       id="path1108" />
  </g>
  <g
     transform="translate(28.16,28.53636)"
     id="g1116">
    <text
       font-family="'Charis SIL'"
       font-size="2.4696px"
       text-anchor="start"
       fill="currentColor"
       id="text1114"><tspan
         id="tspan1112">že</tspan></text>
  </g>
  <g
     transform="translate(28.6688,31.33636)"
     id="g1122">
    <text
       font-family="'Charis SIL'"
       font-style="italic"
       font-size="2.4696px"
       text-anchor="start"
       fill="currentColor"
       id="text1120"><tspan
         id="tspan1118">men</tspan></text>
  </g>
  <g
     transform="translate(0.8,22.57526)"
     id="g1126">
    <path
       transform="scale(0.004,-0.004)"
       d="m 266,-635 h -6 c -108,0 -195,88 -195,197 0,58 53,103 112,103 54,0 95,-47 95,-103 0,-52 -43,-95 -95,-95 -11,0 -21,2 -31,6 26,-39 68,-65 117,-65 h 4 z m 195,432 c 68,24 113,90 113,164 0,90 -66,179 -173,190 19,-89 48,-242 60,-354 z M 74,28 c 0,-145 141,-247 264,-247 1,0 47,0 82,6 -7,64 -29,203 -63,364 -79,-8 -124,-61 -124,-119 0,-44 25,-91 81,-123 5,-5 7,-10 7,-15 0,-11 -10,-22 -22,-22 -15,0 -126,62 -126,187 0,88 58,174 160,197 -14,58 -29,117 -46,175 C 180,310 74,188 74,28 Z m 176,525 c -29,96 -52,170 -52,346 0,115 55,224 149,292 6,5 14,5 20,0 68,-80 133,-245 133,-358 0,-143 -86,-255 -180,-364 21,-68 39,-138 56,-207 2,0 7,1 13,1 155,0 256,-128 256,-261 0,-113 -74,-212 -180,-246 3,-35 5,-70 5,-105 0,-19 -1,-39 -2,-58 -7,-119 -88,-225 -202,-228 l 1,43 c 93,2 153,92 159,191 1,18 2,37 2,55 0,31 -1,61 -4,92 -5,-1 -44,-8 -89,-8 C 142,-262 2,-82 2,112 2,289 133,418 250,553 Z m 178,363 c 0,34 1,66 -20,129 -99,-48 -162,-149 -162,-259 0,-52 12,-115 36,-194 80,97 146,198 146,324 z"
       fill="currentColor"
       id="path1124" />
  </g>
  <g
     transform="translate(5.8,23.57526)"
     id="g1130">
    <path
       transform="scale(0.004,-0.004)"
       d="m 218,136 c 66,0 108,-36 108,-89 0,-89 -113,-183 -218,-183 -66,0 -108,36 -108,89 0,89 113,183 218,183 z"
       fill="currentColor"
       id="path1128" />
  </g>
  <g
     transform="translate(4.284,28.53636)"
     id="g1136">
    <text
       font-family="'Charis SIL'"
       font-size="2.4696px"
       text-anchor="start"
       fill="currentColor"
       id="text1134"><tspan
         id="tspan1132">svět</tspan></text>
  </g>
  <g
     transform="translate(5.479,31.33636)"
     id="g1142">
    <text
       font-family="'Charis SIL'"
       font-style="italic"
       font-size="2.4696px"
       text-anchor="start"
       fill="currentColor"
       id="text1140"><tspan
         id="tspan1138">lu</tspan></text>
  </g>
  <g
     transform="translate(10.5737,22.57526)"
     id="g1146">
    <path
       transform="scale(0.004,-0.004)"
       d="m 218,136 c 66,0 108,-36 108,-89 0,-89 -113,-183 -218,-183 -66,0 -108,36 -108,89 0,89 113,183 218,183 z"
       fill="currentColor"
       id="path1144" />
  </g>
  <g
     transform="translate(10.5737,28.53636)"
     id="g1152">
    <text
       font-family="'Charis SIL'"
       font-size="2.4696px"
       text-anchor="start"
       fill="currentColor"
       id="text1150"><tspan
         id="tspan1148">lo</tspan></text>
  </g>
  <g
     transform="translate(9.9113,31.33636)"
     id="g1158">
    <text
       font-family="'Charis SIL'"
       font-style="italic"
       font-size="2.4696px"
       text-anchor="start"
       fill="currentColor"
       id="text1156"><tspan
         id="tspan1154">cis</tspan></text>
  </g>
  <g
     transform="translate(46.7639,23.57526)"
     id="g1162">
    <path
       transform="scale(0.004,-0.004)"
       d="m 218,136 c 66,0 108,-36 108,-89 0,-89 -113,-183 -218,-183 -66,0 -108,36 -108,89 0,89 113,183 218,183 z"
       fill="currentColor"
       id="path1160" />
  </g>
  <g
     transform="translate(46.2381,31.33636)"
     id="g1168">
    <text
       font-family="'Charis SIL'"
       font-style="italic"
       font-size="2.4696px"
       text-anchor="start"
       fill="currentColor"
       id="text1166"><tspan
         id="tspan1164">de</tspan></text>
  </g>
  <g
     transform="translate(51.2877,24.07526)"
     id="g1172">
    <path
       transform="scale(0.004,-0.004)"
       d="m 218,136 c 66,0 108,-36 108,-89 0,-89 -113,-183 -218,-183 -66,0 -108,36 -108,89 0,89 113,183 218,183 z"
       fill="currentColor"
       id="path1170" />
  </g>
  <g
     transform="translate(49.9595,28.53636)"
     id="g1178">
    <text
       font-family="'Charis SIL'"
       font-size="2.4696px"
       text-anchor="start"
       fill="currentColor"
       id="text1176"><tspan
         id="tspan1174">me,</tspan></text>
  </g>
  <g
     transform="translate(50.3521,31.33636)"
     id="g1184">
    <text
       font-family="'Charis SIL'"
       font-style="italic"
       font-size="2.4696px"
       text-anchor="start"
       fill="currentColor"
       id="text1182"><tspan
         id="tspan1180">ris,</tspan></text>
  </g>
  <g
     transform="translate(46.5624,28.53636)"
     id="g1190">
    <text
       font-family="'Charis SIL'"
       font-size="2.4696px"
       text-anchor="start"
       fill="currentColor"
       id="text1188"><tspan
         id="tspan1186">ří</tspan></text>
  </g>
  <g
     transform="translate(57.3047,24.07526)"
     id="g1194">
    <path
       transform="scale(0.004,-0.004)"
       d="m 218,136 c 66,0 108,-36 108,-89 0,-89 -113,-183 -218,-183 -66,0 -108,36 -108,89 0,89 113,183 218,183 z"
       fill="currentColor"
       id="path1192" />
  </g>
  <g
     transform="translate(55.7887,28.53636)"
     id="g1200">
    <text
       font-family="'Charis SIL'"
       font-size="2.4696px"
       text-anchor="start"
       fill="currentColor"
       id="text1198"><tspan
         id="tspan1196">svět</tspan></text>
  </g>
  <g
     transform="translate(57.3047,31.33636)"
     id="g1206">
    <text
       font-family="'Charis SIL'"
       font-style="italic"
       font-size="2.4696px"
       text-anchor="start"
       fill="currentColor"
       id="text1204"><tspan
         id="tspan1202">lu</tspan></text>
  </g>
  <g
     transform="translate(33.1926,24.07526)"
     id="g1210">
    <path
       transform="scale(0.004,-0.004)"
       d="m 218,136 c 66,0 108,-36 108,-89 0,-89 -113,-183 -218,-183 -66,0 -108,36 -108,89 0,89 113,183 218,183 z"
       fill="currentColor"
       id="path1208" />
  </g>
  <g
     transform="translate(32.2741,28.53636)"
     id="g1216">
    <text
       font-family="'Charis SIL'"
       font-size="2.4696px"
       text-anchor="start"
       fill="currentColor"
       id="text1214"><tspan
         id="tspan1212">jsi,</tspan></text>
  </g>
  <g
     transform="translate(37.7164,23.57526)"
     id="g1220">
    <path
       transform="scale(0.004,-0.004)"
       d="m 218,136 c 66,0 108,-36 108,-89 0,-89 -113,-183 -218,-183 -66,0 -108,36 -108,89 0,89 113,183 218,183 z"
       fill="currentColor"
       id="path1218" />
  </g>
  <g
     transform="translate(36.2516,28.53636)"
     id="g1226">
    <text
       font-family="'Charis SIL'"
       font-size="2.4696px"
       text-anchor="start"
       fill="currentColor"
       id="text1224"><tspan
         id="tspan1222">myť</tspan></text>
  </g>
  <g
     transform="translate(42.2401,23.07526)"
     id="g1230">
    <path
       transform="scale(0.004,-0.004)"
       d="m 218,136 c 66,0 108,-36 108,-89 0,-89 -113,-183 -218,-183 -66,0 -108,36 -108,89 0,89 113,183 218,183 z"
       fill="currentColor"
       id="path1228" />
  </g>
  <g
     transform="translate(41.646,28.53636)"
     id="g1236">
    <text
       font-family="'Charis SIL'"
       font-size="2.4696px"
       text-anchor="start"
       fill="currentColor"
       id="text1234"><tspan
         id="tspan1232">vě</tspan></text>
  </g>
  <g
     transform="translate(41.3729,31.33636)"
     id="g1242">
    <text
       font-family="'Charis SIL'"
       font-style="italic"
       font-size="2.4696px"
       text-anchor="start"
       fill="currentColor"
       id="text1240"><tspan
         id="tspan1238">cre</tspan></text>
  </g>
</svg>
